Estimate the spread-rate of epidemics • spreadrate
…
Installation

To install the latest version of spreadrate, copy and paste the following in a R session.

if (!require("remotes")) {
  install.packages("remotes")
}
install.packages("INLA", repos="https://inla.r-inla-download.org/R/testing")
remotes::install_github("Cirad-ASTRE/mapMCDA")

Example

Suppose that we have recorded the GPS coordinates and observation dates for all the observed cases of some emerging disease in mainland France into a table like this one.

#> # A tibble: 50 x 3
#>    date         Lon   Lat
#>    <date>     <dbl> <dbl>
#>  1 2019-02-03  7.05  49.0
#>  2 2019-02-03  7.27  48.8
#>  3 2019-02-12  5.07  49.5
#>  4 2019-02-15  5.79  48.3
#>  5 2019-02-16  7.01  47.5
#>  6 2019-02-18  3.90  50.2
#>  7 2019-02-19  6.12  47.5
#>  8 2019-02-20  5.25  48.1
#>  9 2019-02-21  4.18  48.9
#> 10 2019-02-24  3.17  50.1
#> # … with 40 more rows
…
